<svg width="64" height="50" viewBox="0 0 64 50" fill="none" xmlns="http://www.w3.org/2000/svg">
<g filter="url(#filter0_bd)">
<rect x="5.85547" y="1.28223" width="52.145" height="37.2464" rx="6.58397" fill="#606060"/>
<rect x="5.66924" y="1.09599" width="52.5175" height="37.6189" rx="6.7702" stroke="#CDCDCD" stroke-width="0.372464"/>
</g>
<path d="M24.5814 24.9727H23.301L18.151 17.1633V24.9727H16.8706V15.1512H18.151L23.301 22.9464V15.1512H24.5814V24.9727ZM33.7996 20.8217C33.7996 21.0656 33.7855 21.3236 33.7574 21.5956H27.5943C27.6412 22.3555 27.8992 22.9511 28.3682 23.3826C28.8466 23.8048 29.4235 24.0158 30.099 24.0158C30.6524 24.0158 31.1121 23.8892 31.4779 23.6359C31.8531 23.3733 32.1158 23.0262 32.2659 22.5947H33.6448C33.4384 23.3357 33.0257 23.9408 32.4066 24.4098C31.7875 24.8695 31.0182 25.0993 30.099 25.0993C29.3673 25.0993 28.7106 24.9351 28.129 24.6068C27.5568 24.2785 27.1065 23.8142 26.7782 23.2138C26.4499 22.6041 26.2857 21.9005 26.2857 21.1032C26.2857 20.3058 26.4452 19.607 26.7642 19.0066C27.0831 18.4062 27.5287 17.9466 28.1009 17.6277C28.6825 17.2993 29.3485 17.1352 30.099 17.1352C30.8306 17.1352 31.4779 17.2946 32.0407 17.6136C32.6036 17.9325 33.0351 18.3734 33.3353 18.9362C33.6448 19.4897 33.7996 20.1182 33.7996 20.8217ZM32.4769 20.5544C32.4769 20.0666 32.3691 19.6492 32.1533 19.3021C31.9375 18.9456 31.6421 18.6783 31.2668 18.5001C30.901 18.3124 30.4929 18.2186 30.0427 18.2186C29.3954 18.2186 28.842 18.425 28.3823 18.8378C27.932 19.2505 27.6741 19.8227 27.6084 20.5544H32.4769ZM39.514 24.9727L37.6848 22.1022L35.9259 24.9727H34.5892L37.0798 21.1454L34.5892 17.2618H36.0385L37.8677 20.1182L39.6125 17.2618H40.9492L38.4728 21.075L40.9633 24.9727H39.514ZM43.7847 18.3171V22.862C43.7847 23.2372 43.8645 23.5046 44.024 23.6641C44.1834 23.8142 44.4601 23.8892 44.8541 23.8892H45.7969V24.9727H44.6431C43.9301 24.9727 43.3955 24.8085 43.039 24.4802C42.6825 24.1519 42.5043 23.6125 42.5043 22.862V18.3171H41.5053V17.2618H42.5043V15.32H43.7847V17.2618H45.7969V18.3171H43.7847Z" fill="white"/>
<defs>
<filter id="filter0_bd" x="-7.68455" y="-12.2583" width="79.2258" height="64.3273" filterUnits="userSpaceOnUse" color-interpolation-filters="sRGB">
<feFlood flood-opacity="0" result="BackgroundImageFix"/>
<feGaussianBlur in="BackgroundImage" stdDeviation="6.58397"/>
<feComposite in2="SourceAlpha" operator="in" result="effect1_backgroundBlur"/>
<feColorMatrix in="SourceAlpha" type="matrix" values="0 0 0 0 0 0 0 0 0 0 0 0 0 0 0 0 0 0 127 0"/>
<feOffset dy="5.26718"/>
<feGaussianBlur stdDeviation="2.63359"/>
<feColorMatrix type="matrix" values="0 0 0 0 0 0 0 0 0 0 0 0 0 0 0 0 0 0 0.33 0"/>
<feBlend mode="normal" in2="effect1_backgroundBlur" result="effect2_dropShadow"/>
<feBlend mode="normal" in="SourceGraphic" in2="effect2_dropShadow" result="shape"/>
</filter>
</defs>
</svg>
